image_id,split,sat_image_path,mask_path
850510,train,/home/kent/college/Thesis/deepglobe/train/850510_sat.jpg,/home/kent/college/Thesis/deepglobe/train/850510_mask.png
950926,train,/home/kent/college/Thesis/deepglobe/train/950926_sat.jpg,/home/kent/college/Thesis/deepglobe/train/950926_mask.png
156574,train,/home/kent/college/Thesis/deepglobe/train/156574_sat.jpg,/home/kent/college/Thesis/deepglobe/train/156574_mask.png
675849,train,/home/kent/college/Thesis/deepglobe/train/675849_sat.jpg,/home/kent/college/Thesis/deepglobe/train/675849_mask.png
596837,train,/home/kent/college/Thesis/deepglobe/train/596837_sat.jpg,/home/kent/college/Thesis/deepglobe/train/596837_mask.png
605764,train,/home/kent/college/Thesis/deepglobe/train/605764_sat.jpg,/home/kent/college/Thesis/deepglobe/train/605764_mask.png
149624,train,/home/kent/college/Thesis/deepglobe/train/149624_sat.jpg,/home/kent/college/Thesis/deepglobe/train/149624_mask.png
942594,train,/home/kent/college/Thesis/deepglobe/train/942594_sat.jpg,/home/kent/college/Thesis/deepglobe/train/942594_mask.png
639004,train,/home/kent/college/Thesis/deepglobe/train/639004_sat.jpg,/home/kent/college/Thesis/deepglobe/train/639004_mask.png
736933,train,/home/kent/college/Thesis/deepglobe/train/736933_sat.jpg,/home/kent/college/Thesis/deepglobe/train/736933_mask.png
853702,train,/home/kent/college/Thesis/deepglobe/train/853702_sat.jpg,/home/kent/college/Thesis/deepglobe/train/853702_mask.png
547785,train,/home/kent/college/Thesis/deepglobe/train/547785_sat.jpg,/home/kent/college/Thesis/deepglobe/train/547785_mask.png
778804,train,/home/kent/college/Thesis/deepglobe/train/778804_sat.jpg,/home/kent/college/Thesis/deepglobe/train/778804_mask.png
757745,train,/home/kent/college/Thesis/deepglobe/train/757745_sat.jpg,/home/kent/college/Thesis/deepglobe/train/757745_mask.png
455374,train,/home/kent/college/Thesis/deepglobe/train/455374_sat.jpg,/home/kent/college/Thesis/deepglobe/train/455374_mask.png
528163,train,/home/kent/college/Thesis/deepglobe/train/528163_sat.jpg,/home/kent/college/Thesis/deepglobe/train/528163_mask.png
501284,train,/home/kent/college/Thesis/deepglobe/train/501284_sat.jpg,/home/kent/college/Thesis/deepglobe/train/501284_mask.png
943943,train,/home/kent/college/Thesis/deepglobe/train/943943_sat.jpg,/home/kent/college/Thesis/deepglobe/train/943943_mask.png
43814,train,/home/kent/college/Thesis/deepglobe/train/43814_sat.jpg,/home/kent/college/Thesis/deepglobe/train/43814_mask.png
728521,train,/home/kent/college/Thesis/deepglobe/train/728521_sat.jpg,/home/kent/college/Thesis/deepglobe/train/728521_mask.png
358591,train,/home/kent/college/Thesis/deepglobe/train/358591_sat.jpg,/home/kent/college/Thesis/deepglobe/train/358591_mask.png
565914,train,/home/kent/college/Thesis/deepglobe/train/565914_sat.jpg,/home/kent/college/Thesis/deepglobe/train/565914_mask.png
692982,train,/home/kent/college/Thesis/deepglobe/train/692982_sat.jpg,/home/kent/college/Thesis/deepglobe/train/692982_mask.png
387554,train,/home/kent/college/Thesis/deepglobe/train/387554_sat.jpg,/home/kent/college/Thesis/deepglobe/train/387554_mask.png
147716,train,/home/kent/college/Thesis/deepglobe/train/147716_sat.jpg,/home/kent/college/Thesis/deepglobe/train/147716_mask.png
665914,train,/home/kent/college/Thesis/deepglobe/train/665914_sat.jpg,/home/kent/college/Thesis/deepglobe/train/665914_mask.png
443271,train,/home/kent/college/Thesis/deepglobe/train/443271_sat.jpg,/home/kent/college/Thesis/deepglobe/train/443271_mask.png
255889,train,/home/kent/college/Thesis/deepglobe/train/255889_sat.jpg,/home/kent/college/Thesis/deepglobe/train/255889_mask.png
660069,train,/home/kent/college/Thesis/deepglobe/train/660069_sat.jpg,/home/kent/college/Thesis/deepglobe/train/660069_mask.png
544537,train,/home/kent/college/Thesis/deepglobe/train/544537_sat.jpg,/home/kent/college/Thesis/deepglobe/train/544537_mask.png
906113,train,/home/kent/college/Thesis/deepglobe/train/906113_sat.jpg,/home/kent/college/Thesis/deepglobe/train/906113_mask.png
961919,train,/home/kent/college/Thesis/deepglobe/train/961919_sat.jpg,/home/kent/college/Thesis/deepglobe/train/961919_mask.png
338798,train,/home/kent/college/Thesis/deepglobe/train/338798_sat.jpg,/home/kent/college/Thesis/deepglobe/train/338798_mask.png
586806,train,/home/kent/college/Thesis/deepglobe/train/586806_sat.jpg,/home/kent/college/Thesis/deepglobe/train/586806_mask.png
34567,train,/home/kent/college/Thesis/deepglobe/train/34567_sat.jpg,/home/kent/college/Thesis/deepglobe/train/34567_mask.png
7892,train,/home/kent/college/Thesis/deepglobe/train/7892_sat.jpg,/home/kent/college/Thesis/deepglobe/train/7892_mask.png
358314,train,/home/kent/college/Thesis/deepglobe/train/358314_sat.jpg,/home/kent/college/Thesis/deepglobe/train/358314_mask.png
280703,train,/home/kent/college/Thesis/deepglobe/train/280703_sat.jpg,/home/kent/college/Thesis/deepglobe/train/280703_mask.png
430587,train,/home/kent/college/Thesis/deepglobe/train/430587_sat.jpg,/home/kent/college/Thesis/deepglobe/train/430587_mask.png
349442,train,/home/kent/college/Thesis/deepglobe/train/349442_sat.jpg,/home/kent/college/Thesis/deepglobe/train/349442_mask.png
186739,train,/home/kent/college/Thesis/deepglobe/train/186739_sat.jpg,/home/kent/college/Thesis/deepglobe/train/186739_mask.png
140299,train,/home/kent/college/Thesis/deepglobe/train/140299_sat.jpg,/home/kent/college/Thesis/deepglobe/train/140299_mask.png
860326,train,/home/kent/college/Thesis/deepglobe/train/860326_sat.jpg,/home/kent/college/Thesis/deepglobe/train/860326_mask.png
820543,train,/home/kent/college/Thesis/deepglobe/train/820543_sat.jpg,/home/kent/college/Thesis/deepglobe/train/820543_mask.png
311386,train,/home/kent/college/Thesis/deepglobe/train/311386_sat.jpg,/home/kent/college/Thesis/deepglobe/train/311386_mask.png
739122,train,/home/kent/college/Thesis/deepglobe/train/739122_sat.jpg,/home/kent/college/Thesis/deepglobe/train/739122_mask.png
102122,train,/home/kent/college/Thesis/deepglobe/train/102122_sat.jpg,/home/kent/college/Thesis/deepglobe/train/102122_mask.png
899693,train,/home/kent/college/Thesis/deepglobe/train/899693_sat.jpg,/home/kent/college/Thesis/deepglobe/train/899693_mask.png
679036,train,/home/kent/college/Thesis/deepglobe/train/679036_sat.jpg,/home/kent/college/Thesis/deepglobe/train/679036_mask.png
325354,train,/home/kent/college/Thesis/deepglobe/train/325354_sat.jpg,/home/kent/college/Thesis/deepglobe/train/325354_mask.png
204494,train,/home/kent/college/Thesis/deepglobe/train/204494_sat.jpg,/home/kent/college/Thesis/deepglobe/train/204494_mask.png
252743,train,/home/kent/college/Thesis/deepglobe/train/252743_sat.jpg,/home/kent/college/Thesis/deepglobe/train/252743_mask.png
898741,train,/home/kent/college/Thesis/deepglobe/train/898741_sat.jpg,/home/kent/college/Thesis/deepglobe/train/898741_mask.png
257695,train,/home/kent/college/Thesis/deepglobe/train/257695_sat.jpg,/home/kent/college/Thesis/deepglobe/train/257695_mask.png
916518,train,/home/kent/college/Thesis/deepglobe/train/916518_sat.jpg,/home/kent/college/Thesis/deepglobe/train/916518_mask.png
417313,train,/home/kent/college/Thesis/deepglobe/train/417313_sat.jpg,/home/kent/college/Thesis/deepglobe/train/417313_mask.png
471930,train,/home/kent/college/Thesis/deepglobe/train/471930_sat.jpg,/home/kent/college/Thesis/deepglobe/train/471930_mask.png
129298,train,/home/kent/college/Thesis/deepglobe/train/129298_sat.jpg,/home/kent/college/Thesis/deepglobe/train/129298_mask.png
55374,train,/home/kent/college/Thesis/deepglobe/train/55374_sat.jpg,/home/kent/college/Thesis/deepglobe/train/55374_mask.png
978039,train,/home/kent/college/Thesis/deepglobe/train/978039_sat.jpg,/home/kent/college/Thesis/deepglobe/train/978039_mask.png
95613,train,/home/kent/college/Thesis/deepglobe/train/95613_sat.jpg,/home/kent/college/Thesis/deepglobe/train/95613_mask.png
549959,train,/home/kent/college/Thesis/deepglobe/train/549959_sat.jpg,/home/kent/college/Thesis/deepglobe/train/549959_mask.png
927644,train,/home/kent/college/Thesis/deepglobe/train/927644_sat.jpg,/home/kent/college/Thesis/deepglobe/train/927644_mask.png
326173,train,/home/kent/college/Thesis/deepglobe/train/326173_sat.jpg,/home/kent/college/Thesis/deepglobe/train/326173_mask.png
584941,train,/home/kent/college/Thesis/deepglobe/train/584941_sat.jpg,/home/kent/college/Thesis/deepglobe/train/584941_mask.png
645001,train,/home/kent/college/Thesis/deepglobe/train/645001_sat.jpg,/home/kent/college/Thesis/deepglobe/train/645001_mask.png
238322,train,/home/kent/college/Thesis/deepglobe/train/238322_sat.jpg,/home/kent/college/Thesis/deepglobe/train/238322_mask.png
547201,train,/home/kent/college/Thesis/deepglobe/train/547201_sat.jpg,/home/kent/college/Thesis/deepglobe/train/547201_mask.png
37586,train,/home/kent/college/Thesis/deepglobe/train/37586_sat.jpg,/home/kent/college/Thesis/deepglobe/train/37586_mask.png
774779,train,/home/kent/college/Thesis/deepglobe/train/774779_sat.jpg,/home/kent/college/Thesis/deepglobe/train/774779_mask.png
641771,train,/home/kent/college/Thesis/deepglobe/train/641771_sat.jpg,/home/kent/college/Thesis/deepglobe/train/641771_mask.png
10452,train,/home/kent/college/Thesis/deepglobe/train/10452_sat.jpg,/home/kent/college/Thesis/deepglobe/train/10452_mask.png
509290,train,/home/kent/college/Thesis/deepglobe/train/509290_sat.jpg,/home/kent/college/Thesis/deepglobe/train/509290_mask.png
991758,train,/home/kent/college/Thesis/deepglobe/train/991758_sat.jpg,/home/kent/college/Thesis/deepglobe/train/991758_mask.png
27460,train,/home/kent/college/Thesis/deepglobe/train/27460_sat.jpg,/home/kent/college/Thesis/deepglobe/train/27460_mask.png
226788,train,/home/kent/college/Thesis/deepglobe/train/226788_sat.jpg,/home/kent/college/Thesis/deepglobe/train/226788_mask.png
784518,train,/home/kent/college/Thesis/deepglobe/train/784518_sat.jpg,/home/kent/college/Thesis/deepglobe/train/784518_mask.png
129297,train,/home/kent/college/Thesis/deepglobe/train/129297_sat.jpg,/home/kent/college/Thesis/deepglobe/train/129297_mask.png
524518,train,/home/kent/college/Thesis/deepglobe/train/524518_sat.jpg,/home/kent/college/Thesis/deepglobe/train/524518_mask.png
276761,train,/home/kent/college/Thesis/deepglobe/train/276761_sat.jpg,/home/kent/college/Thesis/deepglobe/train/276761_mask.png
